# Copyright 2015-2018 Santhosh Thottingal, Rajeesh KV, Kavya Manohar

Kerning
-------

ക്ര്യ  ക്ട്ര്യ  ക്ക്ര്യ  ക്ഷ്ണ്യ  ഗ്ഗ്യ  ഗ്ഗ്വ  ഗ്ര്യ  ഘ്ര്യ  ട്ട്യ  ട്ട്വ  ഡ്ഡ്യ  ഡ്ഢ്യ  ണ്ണ്യ  ണ്ണ്വ
ത്ര്യ  ദ്ദ്യ  ദ്ദ്വ  ന്ത്ര്യ  ന്ദ്ര്യ  പ്ത  പ്ത്വ  പ്സ്യ  ഫ്ത്യ  ഫ്ത്വ  ഫ്സ്യ  ബ്ദ്യ  മ്പ്ര്യ  മ്ര്യ  യ്ത  യ്ത്വ 
ല്ക്യ  ല്ല്യ  ല്ല്വ  ശ്ന്യ  ശ്മ്യ  ശ്ര്യ  ശ്ശ്യ  ശ്ശ്വ  ഷ്ക്യ  ഷ്ക്വ  ഷ്ണ്യ  ഷ്മ്യ 
സ്ക്യ  സ്ക്യു  സ്ക്യൂ  സ്ക്വ  സ്ക്ര്യ  സ്ഖ്യ  സ്ത്യ  സ്ത്യു  സ്ത്യൂ  സ്ത്ര്യ  സ്ന്യ  സ്പ്യ  സ്മ്യ  സ്ര്യ സ്പ്ലേ
സ്സ്യ  സ്സ്യു  സ്സ്യൂ  സ്റ്റ്യ  സ്റ്റ്യൂ  ള്യ  ഴ്ക്യ  ഴ്ക്വ  ഴ്സ്യ  റ്റ്യ  റ്റ്യൂ  റ്റ്വ
ച്ച്യ  ച്ഛ്യ 

ി'  ി"  ി’  ി”
ന്റി  ന്റീ  ന്റ' ന്റ"  ന്റ”  ന്റ“

സ്'  സ്"  സ്’  സ്”  സ്!  സ്)  സ്( സ്*  സ്`  സ്?
ഽ'  ഽ"  ഽ’  ഽ”  ഽ)  (ഽ  ഽ?
